MAKING 0
 to: 2 2
MAKING 1
 to: 2 4
MAKING 2
 to: 4 2
MAKING 3
 to: 4 4
State: 0 agents
0 0 0 0 0 
0 0 0 0 0 
0 0 1 0 1 
0 0 0 0 0 
0 0 1 0 1 



MAKING 4
 to: 2 2
MOVING: 0
 to: 1 2 from: 2 2 type: 1   // VISTIGAL
MOVING: 1
 to: 1 4 from: 2 4 type: 0
MOVING: 2
 to: 3 2 from: 4 2 type: 0
MOVING: 3
 to: 3 4 from: 4 4 type: 0
State: 1 agents
0 0 0 0 0 
0 0 3 0 1 
0 0 4 0 0 
0 0 1 0 1 
0 0 0 0 0 



MOVING: 0
 to: 0 2 from: 1 2 type: 1
MOVING: 1
 to: 0 4 from: 1 4 type: 1
MAKING 5
 to: 2 2
MOVING: 4
 to: 1 2 from: 2 2 type: 0
MOVING: 0
 to: 0 2 from: 1 2 type: 1
MAKING 6
 to: 2 4
MOVING: 2
 to: 2 2 from: 3 2 type: 1
MOVING: 3
 to: 2 4 from: 3 4 type: 1
MAKING 7
 to: 4 2
MAKING 8
 to: 4 4
State: 2 agents
0 0 3 0 3 
0 0 1 0 0 
0 0 4 0 4 
0 0 0 0 0 
0 0 1 0 1 



MOVING: 0
 to: 4 2 from: 0 2 type: 1
KILLING 1
 to: 0 4
MOVING: 4
 to: 0 2 from: 1 2 type: 0
MOVING: 5
 to: 1 2 from: 2 2 type: 0  // MISSING
KILLING 2
 to: 2 2
MAKING 2
 to: 2 4  // MISSING
MOVING: 6
 to: 1 4 from: 2 4 type: 0
KILLING 3
 to: 2 4
MAKING 3
 to: 4 2
MOVING: 7
 to: 3 2 from: 4 2 type: 0
MAKING 1
 to: 4 4
MOVING: 8
 to: 3 4 from: 4 4 type: 0
State: 3 agents
0 0 1 0 0 
0 0 0 0 1 
0 0 0 0 0 
0 0 1 0 1 
0 0 4 0 1 



KILLING 4
 to: 0 2
MOVING: 6
 to: 0 4 from: 1 4 type: 0
MAKING 4
 to: 2 2
MAKING 9
 to: 2 4
MOVING: 7
 to: 2 2 from: 3 2 type: 0
MOVING: 8
 to: 2 4 from: 3 4 type: 0
MOVING: 3
 to: 3 2 from: 4 2 type: 0
KILLING 0
 to: 4 2
MOVING: 1
 to: 3 4 from: 4 4 type: 0
Final: agents
0 0 0 0 4 // MISSING x1
0 0 0 0 0 
0 0 4 0 4 
0 0 4 0 4 // MISSING x2 <Vistigal>
0 0 0 0 0 
