1000 5
Collaboration
toMeet:17,-1,-1,-1,17, Type:1, Priority:9999, Length:2, ID:0, Day:6
toMeet:15,-1,15,-1,15, Type:1, Priority:9999, Length:2, ID:1, Day:0
toMeet:3,3,3,3,3, Type:1, Priority:9999, Length:1, ID:2, Day:1
toMeet:4,-1,4,4,4, Type:1, Priority:9999, Length:2, ID:3, Day:5
toMeet:17,-1,-1,-1,-1, Type:1, Priority:9999, Length:1, ID:4, Day:4
Production
Hours:9,1,-1,-1,-1, Type:0, Priority:67, totalHours:10, ID:5
Hours:6,-1,9,2,4, Type:0, Priority:46, totalHours:21, ID:6
Hours:2,7,4,-1,9, Type:0, Priority:55, totalHours:22, ID:7
Hours:-1,8,6,2,7, Type:0, Priority:35, totalHours:23, ID:8
Hours:-1,-1,7,7,3, Type:0, Priority:89, totalHours:17, ID:9
Hours:2,-1,-1,4,3, Type:0, Priority:66, totalHours:9, ID:10
Hours:-1,2,-1,-1,6, Type:0, Priority:37, totalHours:8, ID:11
Hours:7,4,1,-1,5, Type:0, Priority:13, totalHours:17, ID:12
Hours:-1,7,7,2,7, Type:0, Priority:38, totalHours:23, ID:13
Hours:9,3,8,6,-1, Type:0, Priority:6, totalHours:26, ID:14
Hours:-1,7,3,-1,-1, Type:0, Priority:13, totalHours:10, ID:15
Hours:6,-1,-1,-1,8, Type:0, Priority:53, totalHours:14, ID:16
Hours:-1,-1,9,4,8, Type:0, Priority:65, totalHours:21, ID:17
Hours:-1,1,8,5,4, Type:0, Priority:95, totalHours:18, ID:18
Hours:5,-1,1,6,2, Type:0, Priority:17, totalHours:14, ID:19
Hours:-1,1,-1,-1,9, Type:0, Priority:99, totalHours:10, ID:20
Hours:5,8,7,-1,7, Type:0, Priority:41, totalHours:27, ID:21
Hours:1,7,-1,1,5, Type:0, Priority:37, totalHours:14, ID:22
Hours:-1,2,-1,1,4, Type:0, Priority:7, totalHours:7, ID:23
Hours:-1,1,4,-1,2, Type:0, Priority:36, totalHours:7, ID:24
Hours:-1,-1,-1,6,-1, Type:0, Priority:20, totalHours:6, ID:25
Hours:2,-1,4,1,7, Type:0, Priority:52, totalHours:14, ID:26
Hours:-1,4,-1,-1,-1, Type:0, Priority:5, totalHours:4, ID:27
Hours:1,-1,-1,4,-1, Type:0, Priority:75, totalHours:5, ID:28
Hours:2,6,9,9,8, Type:0, Priority:32, totalHours:34, ID:29
Hours:9,2,9,5,7, Type:0, Priority:49, totalHours:32, ID:30
Hours:-1,6,-1,-1,-1, Type:0, Priority:68, totalHours:6, ID:31
Hours:-1,1,4,1,8, Type:0, Priority:77, totalHours:14, ID:32
Hours:7,5,8,5,3, Type:0, Priority:20, totalHours:28, ID:33
Hours:8,-1,4,-1,6, Type:0, Priority:43, totalHours:18, ID:34
Hours:5,-1,-1,-1,6, Type:0, Priority:9, totalHours:11, ID:35
Hours:2,3,-1,7,8, Type:0, Priority:97, totalHours:20, ID:36
Hours:3,-1,9,-1,3, Type:0, Priority:81, totalHours:15, ID:37
Hours:-1,6,-1,-1,5, Type:0, Priority:29, totalHours:11, ID:38
Hours:1,8,6,5,7, Type:0, Priority:92, totalHours:27, ID:39
Hours:-1,-1,5,2,3, Type:0, Priority:77, totalHours:10, ID:40
Hours:3,1,4,3,9, Type:0, Priority:98, totalHours:20, ID:41
Hours:-1,5,-1,-1,7, Type:0, Priority:39, totalHours:12, ID:42
Hours:-1,3,3,6,2, Type:0, Priority:56, totalHours:14, ID:43
Hours:-1,6,-1,-1,-1, Type:0, Priority:93, totalHours:6, ID:44
Hours:8,-1,5,-1,3, Type:0, Priority:98, totalHours:16, ID:45
Hours:1,-1,-1,9,1, Type:0, Priority:29, totalHours:11, ID:46
Hours:-1,6,9,-1,-1, Type:0, Priority:7, totalHours:15, ID:47
Hours:1,3,5,-1,2, Type:0, Priority:97, totalHours:11, ID:48
Hours:-1,4,-1,-1,4, Type:0, Priority:84, totalHours:8, ID:49
Hours:-1,-1,1,-1,1, Type:0, Priority:52, totalHours:2, ID:50
Hours:8,-1,6,-1,2, Type:0, Priority:51, totalHours:16, ID:51
Hours:-1,-1,-1,-1,-1, Type:0, Priority:15, totalHours:0, ID:52
Hours:8,8,4,3,-1, Type:0, Priority:49, totalHours:23, ID:53
Hours:3,9,5,9,-1, Type:0, Priority:16, totalHours:26, ID:54
Hours:3,-1,-1,4,5, Type:0, Priority:35, totalHours:12, ID:55
Hours:-1,7,1,1,-1, Type:0, Priority:85, totalHours:9, ID:56
Hours:-1,-1,5,-1,-1, Type:0, Priority:78, totalHours:5, ID:57
Hours:2,5,-1,7,-1, Type:0, Priority:94, totalHours:14, ID:58
Hours:5,3,3,3,4, Type:0, Priority:80, totalHours:18, ID:59
Hours:-1,-1,1,-1,1, Type:0, Priority:14, totalHours:2, ID:60
Hours:6,8,2,-1,6, Type:0, Priority:36, totalHours:22, ID:61
Hours:2,-1,9,3,3, Type:0, Priority:95, totalHours:17, ID:62
Hours:6,-1,-1,7,3, Type:0, Priority:90, totalHours:16, ID:63
Hours:9,1,-1,8,8, Type:0, Priority:10, totalHours:26, ID:64
Hours:-1,1,5,4,-1, Type:0, Priority:33, totalHours:10, ID:65
Hours:9,2,2,9,-1, Type:0, Priority:77, totalHours:22, ID:66
Hours:-1,-1,1,8,4, Type:0, Priority:77, totalHours:13, ID:67
Hours:-1,-1,1,7,4, Type:0, Priority:96, totalHours:12, ID:68
Hours:1,-1,8,-1,9, Type:0, Priority:70, totalHours:18, ID:69
Hours:8,2,8,7,-1, Type:0, Priority:38, totalHours:25, ID:70
Hours:8,8,-1,6,8, Type:0, Priority:33, totalHours:30, ID:71
Hours:6,9,-1,7,5, Type:0, Priority:71, totalHours:27, ID:72
Hours:-1,4,-1,1,6, Type:0, Priority:61, totalHours:11, ID:73
Hours:-1,8,3,-1,2, Type:0, Priority:50, totalHours:13, ID:74
Hours:9,-1,-1,5,9, Type:0, Priority:8, totalHours:23, ID:75
Hours:1,7,-1,8,9, Type:0, Priority:5, totalHours:25, ID:76
Hours:5,-1,-1,1,2, Type:0, Priority:49, totalHours:8, ID:77
Hours:-1,5,9,7,-1, Type:0, Priority:58, totalHours:21, ID:78
Hours:6,-1,7,4,1, Type:0, Priority:93, totalHours:18, ID:79
Hours:7,5,9,8,-1, Type:0, Priority:25, totalHours:29, ID:80
Hours:1,8,9,-1,6, Type:0, Priority:68, totalHours:24, ID:81
Hours:1,-1,5,-1,9, Type:0, Priority:22, totalHours:15, ID:82
Hours:8,8,7,1,-1, Type:0, Priority:42, totalHours:24, ID:83
Hours:2,6,-1,8,1, Type:0, Priority:78, totalHours:17, ID:84
Hours:-1,5,2,6,-1, Type:0, Priority:28, totalHours:13, ID:85
Hours:2,-1,3,-1,-1, Type:0, Priority:25, totalHours:5, ID:86
Hours:1,-1,7,-1,-1, Type:0, Priority:25, totalHours:8, ID:87
Hours:9,2,1,1,4, Type:0, Priority:49, totalHours:17, ID:88
Hours:-1,-1,-1,-1,4, Type:0, Priority:98, totalHours:4, ID:89
Hours:-1,9,-1,1,6, Type:0, Priority:30, totalHours:16, ID:90
Hours:-1,-1,-1,3,6, Type:0, Priority:6, totalHours:9, ID:91
Hours:-1,-1,1,5,7, Type:0, Priority:4, totalHours:13, ID:92
Hours:7,6,7,-1,4, Type:0, Priority:19, totalHours:24, ID:93
Hours:1,-1,7,-1,-1, Type:0, Priority:73, totalHours:8, ID:94
Hours:7,3,1,5,7, Type:0, Priority:37, totalHours:23, ID:95
Hours:9,8,-1,5,7, Type:0, Priority:17, totalHours:29, ID:96
Hours:3,8,7,3,-1, Type:0, Priority:47, totalHours:21, ID:97
Hours:7,5,8,5,6, Type:0, Priority:94, totalHours:31, ID:98
Hours:4,7,-1,2,3, Type:0, Priority:76, totalHours:16, ID:99
Hours:-1,8,-1,5,1, Type:0, Priority:18, totalHours:14, ID:100
Hours:2,-1,-1,-1,2, Type:0, Priority:70, totalHours:4, ID:101
Hours:3,7,-1,-1,7, Type:0, Priority:7, totalHours:17, ID:102
Hours:-1,-1,2,-1,4, Type:0, Priority:12, totalHours:6, ID:103
Hours:2,-1,9,3,1, Type:0, Priority:53, totalHours:15, ID:104
Hours:6,9,2,2,6, Type:0, Priority:0, totalHours:25, ID:105
Hours:7,-1,9,4,-1, Type:0, Priority:32, totalHours:20, ID:106
Hours:-1,1,-1,-1,7, Type:0, Priority:6, totalHours:8, ID:107
Hours:5,-1,-1,5,-1, Type:0, Priority:81, totalHours:10, ID:108
Hours:-1,7,9,5,-1, Type:0, Priority:8, totalHours:21, ID:109
Hours:3,4,-1,1,1, Type:0, Priority:4, totalHours:9, ID:110
Hours:-1,-1,3,-1,-1, Type:0, Priority:47, totalHours:3, ID:111
Hours:-1,4,2,1,-1, Type:0, Priority:66, totalHours:7, ID:112
Hours:6,1,-1,-1,-1, Type:0, Priority:34, totalHours:7, ID:113
Hours:4,4,9,-1,-1, Type:0, Priority:56, totalHours:17, ID:114
Hours:2,6,2,9,1, Type:0, Priority:37, totalHours:20, ID:115
Hours:7,-1,1,-1,1, Type:0, Priority:89, totalHours:9, ID:116
Hours:-1,8,1,2,-1, Type:0, Priority:25, totalHours:11, ID:117
Hours:-1,6,4,1,-1, Type:0, Priority:24, totalHours:11, ID:118
Hours:-1,1,6,-1,8, Type:0, Priority:79, totalHours:15, ID:119
Hours:9,-1,-1,5,-1, Type:0, Priority:78, totalHours:14, ID:120
Hours:-1,8,2,6,8, Type:0, Priority:87, totalHours:24, ID:121
Hours:6,5,2,-1,7, Type:0, Priority:84, totalHours:20, ID:122
Hours:4,2,-1,-1,-1, Type:0, Priority:94, totalHours:6, ID:123
Hours:5,4,-1,6,2, Type:0, Priority:42, totalHours:17, ID:124
Hours:9,8,8,-1,9, Type:0, Priority:64, totalHours:34, ID:125
Hours:5,2,2,6,1, Type:0, Priority:31, totalHours:16, ID:126
Hours:-1,-1,-1,3,2, Type:0, Priority:79, totalHours:5, ID:127
Hours:3,-1,9,-1,-1, Type:0, Priority:42, totalHours:12, ID:128
Hours:-1,4,4,8,2, Type:0, Priority:41, totalHours:18, ID:129
Hours:6,3,7,5,-1, Type:0, Priority:22, totalHours:21, ID:130
Hours:3,5,9,1,1, Type:0, Priority:43, totalHours:19, ID:131
Hours:7,7,5,1,2, Type:0, Priority:0, totalHours:22, ID:132
Hours:5,-1,2,4,-1, Type:0, Priority:24, totalHours:11, ID:133
Hours:-1,-1,1,5,-1, Type:0, Priority:77, totalHours:6, ID:134
Hours:1,2,5,1,-1, Type:0, Priority:67, totalHours:9, ID:135
Hours:4,-1,-1,-1,1, Type:0, Priority:96, totalHours:5, ID:136
Hours:1,-1,-1,9,2, Type:0, Priority:26, totalHours:12, ID:137
Hours:5,3,-1,2,8, Type:0, Priority:81, totalHours:18, ID:138
Hours:8,5,5,3,2, Type:0, Priority:38, totalHours:23, ID:139
Hours:6,4,-1,1,8, Type:0, Priority:27, totalHours:19, ID:140
Hours:-1,4,-1,7,3, Type:0, Priority:39, totalHours:14, ID:141
Hours:6,4,1,-1,1, Type:0, Priority:9, totalHours:12, ID:142
Hours:2,8,7,-1,7, Type:0, Priority:79, totalHours:24, ID:143
Hours:3,1,-1,6,7, Type:0, Priority:46, totalHours:17, ID:144
Hours:9,4,1,-1,-1, Type:0, Priority:38, totalHours:14, ID:145
Hours:9,-1,1,-1,5, Type:0, Priority:85, totalHours:15, ID:146
Hours:9,9,3,-1,4, Type:0, Priority:60, totalHours:25, ID:147
Hours:1,-1,7,-1,8, Type:0, Priority:9, totalHours:16, ID:148
Hours:-1,-1,5,1,-1, Type:0, Priority:16, totalHours:6, ID:149
Hours:-1,-1,6,-1,-1, Type:0, Priority:82, totalHours:6, ID:150
Hours:-1,4,2,4,4, Type:0, Priority:80, totalHours:14, ID:151
Hours:9,4,9,9,-1, Type:0, Priority:86, totalHours:31, ID:152
Hours:4,-1,3,8,5, Type:0, Priority:47, totalHours:20, ID:153
Hours:-1,1,-1,9,7, Type:0, Priority:64, totalHours:17, ID:154
Hours:1,7,9,-1,-1, Type:0, Priority:86, totalHours:17, ID:155
Hours:-1,-1,1,4,5, Type:0, Priority:53, totalHours:10, ID:156
Hours:2,3,6,-1,1, Type:0, Priority:94, totalHours:12, ID:157
Hours:7,-1,-1,-1,7, Type:0, Priority:55, totalHours:14, ID:158
Hours:7,3,-1,3,-1, Type:0, Priority:4, totalHours:13, ID:159
Hours:-1,-1,-1,7,1, Type:0, Priority:37, totalHours:8, ID:160
Hours:6,6,5,-1,8, Type:0, Priority:40, totalHours:25, ID:161
Hours:5,-1,4,-1,-1, Type:0, Priority:30, totalHours:9, ID:162
Hours:9,-1,-1,1,-1, Type:0, Priority:78, totalHours:10, ID:163
Hours:-1,9,-1,-1,2, Type:0, Priority:96, totalHours:11, ID:164
Hours:3,8,7,4,5, Type:0, Priority:24, totalHours:27, ID:165
Hours:-1,-1,7,6,-1, Type:0, Priority:87, totalHours:13, ID:166
Hours:-1,4,8,-1,-1, Type:0, Priority:82, totalHours:12, ID:167
Hours:-1,3,8,-1,4, Type:0, Priority:82, totalHours:15, ID:168
Hours:-1,6,-1,2,4, Type:0, Priority:17, totalHours:12, ID:169
Hours:-1,-1,-1,4,3, Type:0, Priority:58, totalHours:7, ID:170
Hours:8,-1,9,3,2, Type:0, Priority:4, totalHours:22, ID:171
Hours:-1,-1,9,2,-1, Type:0, Priority:93, totalHours:11, ID:172
Hours:7,5,-1,-1,7, Type:0, Priority:3, totalHours:19, ID:173
Hours:-1,2,4,-1,6, Type:0, Priority:81, totalHours:12, ID:174
Hours:9,4,-1,1,5, Type:0, Priority:55, totalHours:19, ID:175
Hours:7,-1,2,6,2, Type:0, Priority:94, totalHours:17, ID:176
Hours:1,3,6,1,1, Type:0, Priority:35, totalHours:12, ID:177
Hours:7,9,7,5,3, Type:0, Priority:84, totalHours:31, ID:178
Hours:2,8,4,-1,-1, Type:0, Priority:7, totalHours:14, ID:179
Hours:-1,-1,7,-1,-1, Type:0, Priority:35, totalHours:7, ID:180
Hours:-1,9,-1,6,4, Type:0, Priority:95, totalHours:19, ID:181
Hours:3,-1,-1,1,3, Type:0, Priority:72, totalHours:7, ID:182
Hours:7,4,4,-1,-1, Type:0, Priority:33, totalHours:15, ID:183
Hours:9,2,-1,8,-1, Type:0, Priority:56, totalHours:19, ID:184
Hours:5,9,4,3,-1, Type:0, Priority:60, totalHours:21, ID:185
Hours:-1,8,2,-1,9, Type:0, Priority:17, totalHours:19, ID:186
Hours:3,7,-1,9,9, Type:0, Priority:80, totalHours:28, ID:187
Hours:-1,7,9,-1,-1, Type:0, Priority:71, totalHours:16, ID:188
Hours:7,-1,2,7,8, Type:0, Priority:97, totalHours:24, ID:189
Hours:-1,5,7,8,-1, Type:0, Priority:13, totalHours:20, ID:190
Hours:3,9,1,1,3, Type:0, Priority:16, totalHours:17, ID:191
Hours:1,9,8,4,2, Type:0, Priority:71, totalHours:24, ID:192
Hours:6,2,9,8,-1, Type:0, Priority:23, totalHours:25, ID:193
Hours:6,9,9,1,-1, Type:0, Priority:64, totalHours:25, ID:194
Hours:8,-1,5,2,-1, Type:0, Priority:82, totalHours:15, ID:195
Hours:-1,-1,6,8,2, Type:0, Priority:61, totalHours:16, ID:196
Hours:4,3,3,1,6, Type:0, Priority:3, totalHours:17, ID:197
Hours:5,7,1,2,-1, Type:0, Priority:1, totalHours:15, ID:198
Hours:9,-1,3,1,-1, Type:0, Priority:91, totalHours:13, ID:199
Hours:-1,6,2,-1,8, Type:0, Priority:9, totalHours:16, ID:200
Hours:3,-1,5,9,-1, Type:0, Priority:87, totalHours:17, ID:201
Hours:1,5,6,6,6, Type:0, Priority:10, totalHours:24, ID:202
Hours:8,3,1,2,-1, Type:0, Priority:78, totalHours:14, ID:203
Hours:1,5,4,2,3, Type:0, Priority:24, totalHours:15, ID:204
Hours:9,-1,5,5,-1, Type:0, Priority:80, totalHours:19, ID:205
Hours:-1,-1,6,-1,6, Type:0, Priority:33, totalHours:12, ID:206
Hours:3,-1,-1,-1,-1, Type:0, Priority:42, totalHours:3, ID:207
Hours:4,-1,9,-1,2, Type:0, Priority:80, totalHours:15, ID:208
Hours:-1,5,6,-1,3, Type:0, Priority:78, totalHours:14, ID:209
Hours:8,4,-1,-1,5, Type:0, Priority:93, totalHours:17, ID:210
Hours:5,-1,8,4,5, Type:0, Priority:27, totalHours:22, ID:211
Hours:4,-1,-1,4,8, Type:0, Priority:20, totalHours:16, ID:212
Hours:1,2,-1,5,4, Type:0, Priority:63, totalHours:12, ID:213
Hours:7,-1,9,1,5, Type:0, Priority:69, totalHours:22, ID:214
Hours:-1,2,-1,-1,3, Type:0, Priority:87, totalHours:5, ID:215
Hours:1,3,-1,2,2, Type:0, Priority:28, totalHours:8, ID:216
Hours:5,1,-1,1,-1, Type:0, Priority:34, totalHours:7, ID:217
Hours:1,8,8,-1,-1, Type:0, Priority:21, totalHours:17, ID:218
Hours:-1,2,-1,-1,-1, Type:0, Priority:65, totalHours:2, ID:219
Hours:2,9,-1,1,-1, Type:0, Priority:63, totalHours:12, ID:220
Hours:5,9,-1,5,5, Type:0, Priority:55, totalHours:24, ID:221
Hours:-1,-1,9,3,-1, Type:0, Priority:49, totalHours:12, ID:222
Hours:5,-1,2,6,1, Type:0, Priority:82, totalHours:14, ID:223
Hours:6,5,1,6,-1, Type:0, Priority:83, totalHours:18, ID:224
Hours:-1,-1,9,5,7, Type:0, Priority:71, totalHours:21, ID:225
Hours:7,8,2,-1,5, Type:0, Priority:42, totalHours:22, ID:226
Hours:2,4,-1,9,1, Type:0, Priority:7, totalHours:16, ID:227
Hours:4,2,7,-1,3, Type:0, Priority:84, totalHours:16, ID:228
Hours:-1,-1,-1,5,4, Type:0, Priority:97, totalHours:9, ID:229
Hours:-1,9,7,8,1, Type:0, Priority:51, totalHours:25, ID:230
Hours:-1,-1,4,7,1, Type:0, Priority:11, totalHours:12, ID:231
Hours:5,-1,5,4,2, Type:0, Priority:53, totalHours:16, ID:232
Hours:3,8,8,-1,4, Type:0, Priority:51, totalHours:23, ID:233
Hours:8,4,2,3,3, Type:0, Priority:3, totalHours:20, ID:234
Hours:8,-1,1,2,1, Type:0, Priority:18, totalHours:12, ID:235
Hours:3,-1,9,-1,-1, Type:0, Priority:31, totalHours:12, ID:236
Hours:4,-1,2,-1,-1, Type:0, Priority:36, totalHours:6, ID:237
Hours:5,-1,7,7,6, Type:0, Priority:92, totalHours:25, ID:238
Hours:7,8,-1,9,6, Type:0, Priority:64, totalHours:30, ID:239
Hours:6,1,8,6,1, Type:0, Priority:96, totalHours:22, ID:240
Hours:-1,-1,-1,-1,6, Type:0, Priority:70, totalHours:6, ID:241
Hours:2,-1,-1,5,7, Type:0, Priority:77, totalHours:14, ID:242
Hours:-1,1,5,-1,5, Type:0, Priority:85, totalHours:11, ID:243
Hours:2,6,-1,7,-1, Type:0, Priority:69, totalHours:15, ID:244
Hours:8,-1,2,-1,-1, Type:0, Priority:47, totalHours:10, ID:245
Hours:9,5,6,3,1, Type:0, Priority:2, totalHours:24, ID:246
Hours:6,7,-1,-1,4, Type:0, Priority:76, totalHours:17, ID:247
Hours:-1,8,3,-1,-1, Type:0, Priority:8, totalHours:11, ID:248
Hours:4,-1,1,-1,2, Type:0, Priority:21, totalHours:7, ID:249
Hours:2,2,9,-1,7, Type:0, Priority:38, totalHours:20, ID:250
Hours:-1,3,-1,7,7, Type:0, Priority:85, totalHours:17, ID:251
Hours:6,6,2,6,7, Type:0, Priority:72, totalHours:27, ID:252
Hours:-1,5,-1,1,3, Type:0, Priority:8, totalHours:9, ID:253
Hours:1,-1,-1,2,1, Type:0, Priority:82, totalHours:4, ID:254
Hours:5,2,-1,7,-1, Type:0, Priority:34, totalHours:14, ID:255
Hours:5,6,6,3,-1, Type:0, Priority:21, totalHours:20, ID:256
Hours:2,7,2,-1,-1, Type:0, Priority:98, totalHours:11, ID:257
Hours:3,-1,-1,-1,-1, Type:0, Priority:69, totalHours:3, ID:258
Hours:-1,-1,9,2,-1, Type:0, Priority:29, totalHours:11, ID:259
Hours:-1,6,-1,7,-1, Type:0, Priority:97, totalHours:13, ID:260
Hours:4,8,7,7,1, Type:0, Priority:58, totalHours:27, ID:261
Hours:-1,9,4,7,5, Type:0, Priority:73, totalHours:25, ID:262
Hours:7,4,-1,1,6, Type:0, Priority:86, totalHours:18, ID:263
Hours:7,9,9,-1,1, Type:0, Priority:38, totalHours:26, ID:264
Hours:5,2,-1,-1,6, Type:0, Priority:51, totalHours:13, ID:265
Hours:2,-1,2,1,-1, Type:0, Priority:46, totalHours:5, ID:266
Hours:-1,3,3,-1,-1, Type:0, Priority:80, totalHours:6, ID:267
Hours:9,3,4,6,5, Type:0, Priority:4, totalHours:27, ID:268
Hours:8,-1,-1,6,-1, Type:0, Priority:0, totalHours:14, ID:269
Hours:-1,1,4,4,-1, Type:0, Priority:96, totalHours:9, ID:270
Hours:3,-1,3,2,4, Type:0, Priority:77, totalHours:12, ID:271
Hours:-1,9,9,7,-1, Type:0, Priority:56, totalHours:25, ID:272
Hours:8,-1,-1,1,-1, Type:0, Priority:7, totalHours:9, ID:273
Hours:-1,1,7,-1,7, Type:0, Priority:48, totalHours:15, ID:274
Hours:6,7,7,9,2, Type:0, Priority:3, totalHours:31, ID:275
Hours:-1,-1,-1,8,-1, Type:0, Priority:80, totalHours:8, ID:276
Hours:4,-1,-1,2,7, Type:0, Priority:42, totalHours:13, ID:277
Hours:-1,-1,2,-1,8, Type:0, Priority:33, totalHours:10, ID:278
Hours:3,-1,-1,-1,2, Type:0, Priority:69, totalHours:5, ID:279
Hours:5,4,4,2,6, Type:0, Priority:23, totalHours:21, ID:280
Hours:5,-1,5,-1,6, Type:0, Priority:79, totalHours:16, ID:281
Hours:-1,4,3,5,8, Type:0, Priority:3, totalHours:20, ID:282
Hours:-1,8,-1,-1,-1, Type:0, Priority:8, totalHours:8, ID:283
Hours:-1,-1,9,-1,-1, Type:0, Priority:3, totalHours:9, ID:284
Hours:5,7,-1,4,-1, Type:0, Priority:66, totalHours:16, ID:285
Hours:7,-1,-1,9,3, Type:0, Priority:1, totalHours:19, ID:286
Hours:1,-1,6,6,-1, Type:0, Priority:40, totalHours:13, ID:287
Hours:-1,-1,6,2,-1, Type:0, Priority:19, totalHours:8, ID:288
Hours:-1,4,9,1,-1, Type:0, Priority:56, totalHours:14, ID:289
Hours:9,2,9,6,-1, Type:0, Priority:23, totalHours:26, ID:290
Hours:-1,5,2,-1,6, Type:0, Priority:9, totalHours:13, ID:291
Hours:-1,4,-1,5,-1, Type:0, Priority:63, totalHours:9, ID:292
Hours:5,-1,-1,3,5, Type:0, Priority:92, totalHours:13, ID:293
Hours:-1,9,-1,-1,-1, Type:0, Priority:66, totalHours:9, ID:294
Hours:-1,6,-1,9,2, Type:0, Priority:48, totalHours:17, ID:295
Hours:4,-1,8,4,3, Type:0, Priority:13, totalHours:19, ID:296
Hours:5,8,9,-1,6, Type:0, Priority:42, totalHours:28, ID:297
Hours:1,-1,4,6,7, Type:0, Priority:23, totalHours:18, ID:298
Hours:3,1,-1,-1,-1, Type:0, Priority:93, totalHours:4, ID:299
Hours:2,-1,6,7,2, Type:0, Priority:33, totalHours:17, ID:300
Hours:5,1,-1,3,-1, Type:0, Priority:77, totalHours:9, ID:301
Hours:4,-1,7,5,5, Type:0, Priority:8, totalHours:21, ID:302
Hours:-1,-1,5,-1,8, Type:0, Priority:53, totalHours:13, ID:303
Hours:1,-1,6,-1,-1, Type:0, Priority:43, totalHours:7, ID:304
Hours:5,-1,-1,-1,2, Type:0, Priority:83, totalHours:7, ID:305
Hours:8,-1,4,2,9, Type:0, Priority:91, totalHours:23, ID:306
Hours:-1,1,4,-1,1, Type:0, Priority:62, totalHours:6, ID:307
Hours:2,6,3,3,6, Type:0, Priority:74, totalHours:20, ID:308
Hours:5,-1,4,2,-1, Type:0, Priority:59, totalHours:11, ID:309
Hours:-1,-1,3,-1,4, Type:0, Priority:34, totalHours:7, ID:310
Hours:4,3,9,1,1, Type:0, Priority:21, totalHours:18, ID:311
Hours:6,5,2,9,2, Type:0, Priority:37, totalHours:24, ID:312
Hours:9,7,-1,5,5, Type:0, Priority:26, totalHours:26, ID:313
Hours:-1,9,4,-1,-1, Type:0, Priority:17, totalHours:13, ID:314
Hours:1,-1,-1,-1,5, Type:0, Priority:13, totalHours:6, ID:315
Hours:5,7,-1,-1,3, Type:0, Priority:12, totalHours:15, ID:316
Hours:9,9,4,8,9, Type:0, Priority:95, totalHours:39, ID:317
Hours:-1,-1,6,2,1, Type:0, Priority:70, totalHours:9, ID:318
Hours:3,-1,6,2,2, Type:0, Priority:9, totalHours:13, ID:319
Hours:6,-1,5,4,-1, Type:0, Priority:63, totalHours:15, ID:320
Hours:8,-1,7,7,-1, Type:0, Priority:4, totalHours:22, ID:321
Hours:-1,-1,3,-1,-1, Type:0, Priority:70, totalHours:3, ID:322
Hours:-1,1,6,3,5, Type:0, Priority:24, totalHours:15, ID:323
Hours:7,6,5,4,9, Type:0, Priority:16, totalHours:31, ID:324
Hours:2,-1,4,3,-1, Type:0, Priority:29, totalHours:9, ID:325
Hours:4,1,4,2,6, Type:0, Priority:24, totalHours:17, ID:326
Hours:1,3,-1,-1,8, Type:0, Priority:88, totalHours:12, ID:327
Hours:9,4,-1,8,9, Type:0, Priority:50, totalHours:30, ID:328
Hours:9,-1,1,-1,1, Type:0, Priority:27, totalHours:11, ID:329
Hours:4,4,6,8,1, Type:0, Priority:77, totalHours:23, ID:330
Hours:3,7,2,-1,2, Type:0, Priority:30, totalHours:14, ID:331
Hours:4,-1,5,-1,7, Type:0, Priority:47, totalHours:16, ID:332
Hours:4,2,-1,5,6, Type:0, Priority:74, totalHours:17, ID:333
Hours:-1,6,-1,-1,7, Type:0, Priority:40, totalHours:13, ID:334
Hours:-1,2,9,9,-1, Type:0, Priority:11, totalHours:20, ID:335
Hours:-1,3,7,9,2, Type:0, Priority:92, totalHours:21, ID:336
Hours:2,4,-1,-1,-1, Type:0, Priority:5, totalHours:6, ID:337
Hours:7,6,-1,5,-1, Type:0, Priority:82, totalHours:18, ID:338
Hours:7,4,9,-1,6, Type:0, Priority:54, totalHours:26, ID:339
Hours:3,5,-1,-1,5, Type:0, Priority:1, totalHours:13, ID:340
Hours:3,4,-1,7,-1, Type:0, Priority:97, totalHours:14, ID:341
Hours:-1,-1,-1,8,2, Type:0, Priority:60, totalHours:10, ID:342
Hours:-1,9,-1,-1,2, Type:0, Priority:74, totalHours:11, ID:343
Hours:3,7,3,8,-1, Type:0, Priority:41, totalHours:21, ID:344
Hours:2,8,6,8,-1, Type:0, Priority:43, totalHours:24, ID:345
Hours:6,-1,-1,2,-1, Type:0, Priority:67, totalHours:8, ID:346
Hours:5,4,7,3,-1, Type:0, Priority:65, totalHours:19, ID:347
Hours:7,-1,8,-1,2, Type:0, Priority:18, totalHours:17, ID:348
Hours:1,8,-1,9,-1, Type:0, Priority:91, totalHours:18, ID:349
Hours:4,5,-1,8,1, Type:0, Priority:63, totalHours:18, ID:350
Hours:7,-1,2,9,5, Type:0, Priority:41, totalHours:23, ID:351
Hours:3,7,-1,5,-1, Type:0, Priority:9, totalHours:15, ID:352
Hours:5,3,6,-1,-1, Type:0, Priority:70, totalHours:14, ID:353
Hours:2,-1,6,-1,8, Type:0, Priority:51, totalHours:16, ID:354
Hours:6,-1,5,6,8, Type:0, Priority:43, totalHours:25, ID:355
Hours:5,4,5,-1,-1, Type:0, Priority:90, totalHours:14, ID:356
Hours:7,9,-1,1,1, Type:0, Priority:66, totalHours:18, ID:357
Hours:1,-1,-1,4,-1, Type:0, Priority:44, totalHours:5, ID:358
Hours:1,9,2,-1,-1, Type:0, Priority:76, totalHours:12, ID:359
Hours:2,3,9,8,5, Type:0, Priority:8, totalHours:27, ID:360
Hours:3,-1,-1,-1,8, Type:0, Priority:54, totalHours:11, ID:361
Hours:-1,6,6,7,3, Type:0, Priority:44, totalHours:22, ID:362
Hours:2,7,8,3,-1, Type:0, Priority:21, totalHours:20, ID:363
Hours:1,1,4,3,-1, Type:0, Priority:64, totalHours:9, ID:364
Hours:1,-1,8,3,4, Type:0, Priority:55, totalHours:16, ID:365
Hours:1,-1,5,8,-1, Type:0, Priority:8, totalHours:14, ID:366
Hours:-1,9,3,-1,4, Type:0, Priority:94, totalHours:16, ID:367
Hours:-1,6,3,-1,8, Type:0, Priority:92, totalHours:17, ID:368
Hours:-1,8,4,-1,6, Type:0, Priority:68, totalHours:18, ID:369
Hours:4,-1,-1,4,4, Type:0, Priority:98, totalHours:12, ID:370
Hours:-1,-1,7,9,5, Type:0, Priority:45, totalHours:21, ID:371
Hours:-1,8,2,5,8, Type:0, Priority:32, totalHours:23, ID:372
Hours:4,7,-1,-1,7, Type:0, Priority:68, totalHours:18, ID:373
Hours:1,3,-1,9,-1, Type:0, Priority:55, totalHours:13, ID:374
Hours:-1,-1,-1,-1,-1, Type:0, Priority:40, totalHours:0, ID:375
Hours:4,-1,-1,-1,-1, Type:0, Priority:51, totalHours:4, ID:376
Hours:8,3,9,7,4, Type:0, Priority:53, totalHours:31, ID:377
Hours:6,4,8,-1,1, Type:0, Priority:19, totalHours:19, ID:378
Hours:2,-1,-1,-1,9, Type:0, Priority:92, totalHours:11, ID:379
Hours:1,4,7,2,8, Type:0, Priority:75, totalHours:22, ID:380
Hours:1,9,6,-1,-1, Type:0, Priority:57, totalHours:16, ID:381
Hours:-1,-1,-1,6,3, Type:0, Priority:44, totalHours:9, ID:382
Hours:-1,7,-1,3,-1, Type:0, Priority:21, totalHours:10, ID:383
Hours:5,7,9,2,1, Type:0, Priority:2, totalHours:24, ID:384
Hours:5,5,-1,3,1, Type:0, Priority:91, totalHours:14, ID:385
Hours:9,-1,6,1,4, Type:0, Priority:42, totalHours:20, ID:386
Hours:8,8,-1,9,1, Type:0, Priority:88, totalHours:26, ID:387
Hours:6,1,-1,8,-1, Type:0, Priority:79, totalHours:15, ID:388
Hours:5,5,6,1,3, Type:0, Priority:90, totalHours:20, ID:389
Hours:-1,1,2,-1,1, Type:0, Priority:52, totalHours:4, ID:390
Hours:9,8,-1,7,3, Type:0, Priority:36, totalHours:27, ID:391
Hours:8,5,8,7,2, Type:0, Priority:83, totalHours:30, ID:392
Hours:5,-1,9,7,-1, Type:0, Priority:59, totalHours:21, ID:393
Hours:7,8,-1,3,-1, Type:0, Priority:72, totalHours:18, ID:394
Hours:5,8,-1,-1,6, Type:0, Priority:15, totalHours:19, ID:395
Hours:-1,-1,4,3,2, Type:0, Priority:86, totalHours:9, ID:396
Hours:8,5,1,-1,-1, Type:0, Priority:54, totalHours:14, ID:397
Hours:8,3,-1,-1,6, Type:0, Priority:24, totalHours:17, ID:398
Hours:4,7,2,2,8, Type:0, Priority:64, totalHours:23, ID:399
Hours:-1,-1,7,6,-1, Type:0, Priority:4, totalHours:13, ID:400
Hours:3,6,-1,8,8, Type:0, Priority:59, totalHours:25, ID:401
Hours:-1,7,9,-1,-1, Type:0, Priority:44, totalHours:16, ID:402
Hours:7,-1,2,4,-1, Type:0, Priority:59, totalHours:13, ID:403
Hours:3,-1,-1,5,-1, Type:0, Priority:2, totalHours:8, ID:404
Hours:2,2,2,1,2, Type:0, Priority:63, totalHours:9, ID:405
Hours:7,-1,-1,-1,3, Type:0, Priority:86, totalHours:10, ID:406
Hours:-1,-1,-1,-1,-1, Type:0, Priority:79, totalHours:0, ID:407
Hours:8,-1,-1,-1,-1, Type:0, Priority:4, totalHours:8, ID:408
Hours:3,-1,2,-1,8, Type:0, Priority:86, totalHours:13, ID:409
Hours:7,6,1,7,-1, Type:0, Priority:40, totalHours:21, ID:410
Hours:1,5,-1,-1,-1, Type:0, Priority:44, totalHours:6, ID:411
Hours:-1,7,9,-1,2, Type:0, Priority:23, totalHours:18, ID:412
Hours:3,8,2,4,7, Type:0, Priority:7, totalHours:24, ID:413
Hours:-1,-1,2,1,3, Type:0, Priority:92, totalHours:6, ID:414
Hours:9,1,-1,-1,3, Type:0, Priority:73, totalHours:13, ID:415
Hours:9,7,9,3,-1, Type:0, Priority:86, totalHours:28, ID:416
Hours:9,4,6,9,2, Type:0, Priority:44, totalHours:30, ID:417
Hours:-1,9,6,-1,4, Type:0, Priority:24, totalHours:19, ID:418
Hours:-1,3,7,-1,2, Type:0, Priority:90, totalHours:12, ID:419
Hours:7,5,7,2,7, Type:0, Priority:48, totalHours:28, ID:420
Hours:-1,9,5,-1,8, Type:0, Priority:57, totalHours:22, ID:421
Hours:2,-1,5,4,4, Type:0, Priority:52, totalHours:15, ID:422
Hours:-1,2,3,3,-1, Type:0, Priority:73, totalHours:8, ID:423
Hours:8,1,8,-1,-1, Type:0, Priority:31, totalHours:17, ID:424
Hours:5,3,3,9,-1, Type:0, Priority:73, totalHours:20, ID:425
Hours:-1,7,3,1,-1, Type:0, Priority:15, totalHours:11, ID:426
Hours:6,4,6,-1,4, Type:0, Priority:85, totalHours:20, ID:427
Hours:6,7,1,-1,2, Type:0, Priority:76, totalHours:16, ID:428
Hours:7,4,-1,6,9, Type:0, Priority:23, totalHours:26, ID:429
Hours:2,-1,-1,5,-1, Type:0, Priority:12, totalHours:7, ID:430
Hours:5,9,8,6,-1, Type:0, Priority:94, totalHours:28, ID:431
Hours:7,-1,2,4,7, Type:0, Priority:61, totalHours:20, ID:432
Hours:6,3,-1,1,1, Type:0, Priority:88, totalHours:11, ID:433
Hours:-1,-1,-1,-1,4, Type:0, Priority:79, totalHours:4, ID:434
Hours:9,3,1,1,2, Type:0, Priority:6, totalHours:16, ID:435
Hours:-1,-1,-1,-1,-1, Type:0, Priority:56, totalHours:0, ID:436
Hours:-1,-1,7,-1,6, Type:0, Priority:83, totalHours:13, ID:437
Hours:9,9,2,-1,-1, Type:0, Priority:77, totalHours:20, ID:438
Hours:-1,-1,9,-1,-1, Type:0, Priority:41, totalHours:9, ID:439
Hours:-1,5,6,-1,4, Type:0, Priority:82, totalHours:15, ID:440
Hours:1,5,8,4,4, Type:0, Priority:34, totalHours:22, ID:441
Hours:8,5,4,-1,-1, Type:0, Priority:20, totalHours:17, ID:442
Hours:5,1,6,2,7, Type:0, Priority:15, totalHours:21, ID:443
Hours:6,-1,8,5,-1, Type:0, Priority:91, totalHours:19, ID:444
Hours:-1,4,-1,8,4, Type:0, Priority:68, totalHours:16, ID:445
Hours:-1,3,1,1,-1, Type:0, Priority:3, totalHours:5, ID:446
Hours:-1,9,3,1,1, Type:0, Priority:97, totalHours:14, ID:447
Hours:-1,5,8,4,-1, Type:0, Priority:83, totalHours:17, ID:448
Hours:-1,8,4,7,2, Type:0, Priority:62, totalHours:21, ID:449
Hours:4,-1,2,1,9, Type:0, Priority:74, totalHours:16, ID:450
Hours:-1,-1,5,-1,1, Type:0, Priority:52, totalHours:6, ID:451
Hours:9,7,-1,2,2, Type:0, Priority:74, totalHours:20, ID:452
Hours:-1,-1,7,-1,-1, Type:0, Priority:13, totalHours:7, ID:453
Hours:2,8,7,-1,-1, Type:0, Priority:68, totalHours:17, ID:454
Hours:4,3,4,-1,-1, Type:0, Priority:21, totalHours:11, ID:455
Hours:9,9,-1,-1,7, Type:0, Priority:15, totalHours:25, ID:456
Hours:1,4,1,9,-1, Type:0, Priority:17, totalHours:15, ID:457
Hours:9,9,1,3,-1, Type:0, Priority:54, totalHours:22, ID:458
Hours:1,-1,1,-1,7, Type:0, Priority:16, totalHours:9, ID:459
Hours:9,8,1,9,7, Type:0, Priority:83, totalHours:34, ID:460
Hours:3,-1,2,-1,9, Type:0, Priority:47, totalHours:14, ID:461
Hours:2,-1,-1,8,-1, Type:0, Priority:66, totalHours:10, ID:462
Hours:-1,7,-1,4,6, Type:0, Priority:72, totalHours:17, ID:463
Hours:-1,9,-1,9,5, Type:0, Priority:56, totalHours:23, ID:464
Hours:8,-1,3,2,-1, Type:0, Priority:46, totalHours:13, ID:465
Hours:5,7,7,2,5, Type:0, Priority:5, totalHours:26, ID:466
Hours:-1,9,3,-1,-1, Type:0, Priority:65, totalHours:12, ID:467
Hours:-1,6,3,3,1, Type:0, Priority:32, totalHours:13, ID:468
Hours:-1,1,-1,5,2, Type:0, Priority:11, totalHours:8, ID:469
Hours:-1,-1,8,-1,-1, Type:0, Priority:16, totalHours:8, ID:470
Hours:3,-1,3,-1,6, Type:0, Priority:41, totalHours:12, ID:471
Hours:9,4,4,8,-1, Type:0, Priority:68, totalHours:25, ID:472
Hours:7,4,-1,-1,7, Type:0, Priority:21, totalHours:18, ID:473
Hours:9,9,5,3,8, Type:0, Priority:63, totalHours:34, ID:474
Hours:-1,-1,-1,8,5, Type:0, Priority:71, totalHours:13, ID:475
Hours:7,5,3,4,-1, Type:0, Priority:79, totalHours:19, ID:476
Hours:4,-1,4,-1,6, Type:0, Priority:66, totalHours:14, ID:477
Hours:-1,9,-1,4,-1, Type:0, Priority:16, totalHours:13, ID:478
Hours:7,7,-1,-1,2, Type:0, Priority:65, totalHours:16, ID:479
Hours:5,3,3,7,6, Type:0, Priority:6, totalHours:24, ID:480
Hours:9,3,8,9,3, Type:0, Priority:68, totalHours:32, ID:481
Hours:7,3,1,-1,2, Type:0, Priority:14, totalHours:13, ID:482
Hours:6,9,-1,-1,3, Type:0, Priority:90, totalHours:18, ID:483
Hours:-1,6,-1,5,-1, Type:0, Priority:28, totalHours:11, ID:484
Hours:-1,6,6,9,6, Type:0, Priority:54, totalHours:27, ID:485
Hours:9,7,5,6,-1, Type:0, Priority:71, totalHours:27, ID:486
Hours:3,3,-1,-1,6, Type:0, Priority:47, totalHours:12, ID:487
Hours:2,-1,6,-1,7, Type:0, Priority:77, totalHours:15, ID:488
Hours:3,-1,-1,-1,1, Type:0, Priority:59, totalHours:4, ID:489
Hours:4,9,8,8,-1, Type:0, Priority:72, totalHours:29, ID:490
Hours:4,-1,7,3,-1, Type:0, Priority:4, totalHours:14, ID:491
Hours:7,8,3,2,-1, Type:0, Priority:73, totalHours:20, ID:492
Hours:-1,7,-1,6,3, Type:0, Priority:22, totalHours:16, ID:493
Hours:-1,1,6,4,3, Type:0, Priority:43, totalHours:14, ID:494
Hours:6,6,-1,-1,2, Type:0, Priority:22, totalHours:14, ID:495
Hours:2,7,-1,9,-1, Type:0, Priority:74, totalHours:18, ID:496
Hours:5,2,-1,5,-1, Type:0, Priority:2, totalHours:12, ID:497
Hours:3,3,5,1,2, Type:0, Priority:6, totalHours:14, ID:498
Hours:8,3,-1,9,4, Type:0, Priority:5, totalHours:24, ID:499
Hours:5,8,2,9,2, Type:0, Priority:52, totalHours:26, ID:500
Hours:9,-1,-1,-1,-1, Type:0, Priority:11, totalHours:9, ID:501
Hours:4,-1,1,4,-1, Type:0, Priority:47, totalHours:9, ID:502
Hours:5,2,-1,5,8, Type:0, Priority:74, totalHours:20, ID:503
Hours:5,-1,8,3,2, Type:0, Priority:31, totalHours:18, ID:504
Hours:5,3,-1,-1,3, Type:0, Priority:21, totalHours:11, ID:505
Hours:9,-1,-1,7,1, Type:0, Priority:76, totalHours:17, ID:506
Hours:-1,-1,-1,1,-1, Type:0, Priority:22, totalHours:1, ID:507
Hours:8,-1,8,8,2, Type:0, Priority:51, totalHours:26, ID:508
Hours:-1,8,-1,1,-1, Type:0, Priority:1, totalHours:9, ID:509
Hours:-1,1,-1,1,-1, Type:0, Priority:12, totalHours:2, ID:510
Hours:5,-1,3,2,-1, Type:0, Priority:85, totalHours:10, ID:511
Hours:6,-1,7,9,2, Type:0, Priority:29, totalHours:24, ID:512
Hours:9,5,-1,-1,2, Type:0, Priority:11, totalHours:16, ID:513
Hours:2,-1,5,-1,7, Type:0, Priority:45, totalHours:14, ID:514
Hours:-1,-1,2,-1,8, Type:0, Priority:75, totalHours:10, ID:515
Hours:-1,3,6,1,-1, Type:0, Priority:96, totalHours:10, ID:516
Hours:9,1,3,-1,9, Type:0, Priority:83, totalHours:22, ID:517
Hours:2,5,1,1,9, Type:0, Priority:81, totalHours:18, ID:518
Hours:-1,-1,9,7,-1, Type:0, Priority:83, totalHours:16, ID:519
Hours:-1,-1,2,-1,3, Type:0, Priority:37, totalHours:5, ID:520
Hours:3,-1,2,3,1, Type:0, Priority:7, totalHours:9, ID:521
Hours:1,5,4,1,7, Type:0, Priority:23, totalHours:18, ID:522
Hours:-1,-1,-1,8,7, Type:0, Priority:89, totalHours:15, ID:523
Hours:-1,8,8,9,4, Type:0, Priority:20, totalHours:29, ID:524
Hours:5,4,1,-1,3, Type:0, Priority:32, totalHours:13, ID:525
Hours:7,7,2,-1,6, Type:0, Priority:16, totalHours:22, ID:526
Hours:4,-1,1,-1,-1, Type:0, Priority:45, totalHours:5, ID:527
Hours:9,2,-1,-1,5, Type:0, Priority:74, totalHours:16, ID:528
Hours:5,6,-1,2,6, Type:0, Priority:71, totalHours:19, ID:529
Hours:-1,6,3,2,6, Type:0, Priority:24, totalHours:17, ID:530
Hours:3,-1,4,7,-1, Type:0, Priority:12, totalHours:14, ID:531
Hours:3,3,5,2,1, Type:0, Priority:96, totalHours:14, ID:532
Hours:5,8,5,7,-1, Type:0, Priority:87, totalHours:25, ID:533
Hours:-1,-1,-1,6,9, Type:0, Priority:91, totalHours:15, ID:534
Hours:-1,8,-1,2,-1, Type:0, Priority:78, totalHours:10, ID:535
Hours:3,7,2,1,5, Type:0, Priority:50, totalHours:18, ID:536
Hours:1,1,3,-1,8, Type:0, Priority:43, totalHours:13, ID:537
Hours:-1,4,-1,5,-1, Type:0, Priority:40, totalHours:9, ID:538
Hours:-1,1,6,5,-1, Type:0, Priority:10, totalHours:12, ID:539
Hours:5,5,9,5,8, Type:0, Priority:95, totalHours:32, ID:540
Hours:-1,-1,7,3,-1, Type:0, Priority:95, totalHours:10, ID:541
Hours:5,9,6,-1,2, Type:0, Priority:16, totalHours:22, ID:542
Hours:-1,1,-1,-1,-1, Type:0, Priority:83, totalHours:1, ID:543
Hours:8,6,-1,7,5, Type:0, Priority:10, totalHours:26, ID:544
Hours:-1,8,2,-1,2, Type:0, Priority:55, totalHours:12, ID:545
Hours:-1,-1,-1,-1,-1, Type:0, Priority:2, totalHours:0, ID:546
Hours:8,-1,2,-1,-1, Type:0, Priority:80, totalHours:10, ID:547
Hours:6,6,5,6,-1, Type:0, Priority:43, totalHours:23, ID:548
Hours:-1,7,6,5,9, Type:0, Priority:26, totalHours:27, ID:549
Hours:1,-1,8,5,4, Type:0, Priority:67, totalHours:18, ID:550
Hours:-1,9,4,-1,3, Type:0, Priority:30, totalHours:16, ID:551
Hours:6,5,9,-1,4, Type:0, Priority:0, totalHours:24, ID:552
Hours:5,-1,-1,6,8, Type:0, Priority:17, totalHours:19, ID:553
Hours:-1,-1,4,9,2, Type:0, Priority:8, totalHours:15, ID:554
Hours:2,2,8,1,-1, Type:0, Priority:22, totalHours:13, ID:555
Hours:1,3,6,-1,9, Type:0, Priority:5, totalHours:19, ID:556
Hours:7,-1,7,2,5, Type:0, Priority:5, totalHours:21, ID:557
Hours:1,3,9,-1,7, Type:0, Priority:95, totalHours:20, ID:558
Hours:-1,4,5,-1,-1, Type:0, Priority:34, totalHours:9, ID:559
Hours:-1,5,9,-1,-1, Type:0, Priority:97, totalHours:14, ID:560
Hours:3,7,7,1,5, Type:0, Priority:84, totalHours:23, ID:561
Hours:8,-1,8,6,2, Type:0, Priority:22, totalHours:24, ID:562
Hours:5,6,2,7,-1, Type:0, Priority:83, totalHours:20, ID:563
Hours:3,-1,1,-1,-1, Type:0, Priority:60, totalHours:4, ID:564
Hours:7,4,4,3,-1, Type:0, Priority:84, totalHours:18, ID:565
Hours:9,-1,-1,-1,5, Type:0, Priority:28, totalHours:14, ID:566
Hours:8,7,4,6,7, Type:0, Priority:74, totalHours:32, ID:567
Hours:6,-1,-1,3,7, Type:0, Priority:51, totalHours:16, ID:568
Hours:5,-1,5,2,9, Type:0, Priority:56, totalHours:21, ID:569
Hours:4,2,-1,3,9, Type:0, Priority:53, totalHours:18, ID:570
Hours:2,-1,9,9,-1, Type:0, Priority:93, totalHours:20, ID:571
Hours:6,8,7,3,5, Type:0, Priority:66, totalHours:29, ID:572
Hours:3,9,-1,-1,6, Type:0, Priority:92, totalHours:18, ID:573
Hours:-1,-1,3,7,9, Type:0, Priority:16, totalHours:19, ID:574
Hours:5,-1,2,7,-1, Type:0, Priority:70, totalHours:14, ID:575
Hours:4,-1,-1,1,1, Type:0, Priority:96, totalHours:6, ID:576
Hours:4,-1,5,3,4, Type:0, Priority:98, totalHours:16, ID:577
Hours:1,5,5,5,7, Type:0, Priority:22, totalHours:23, ID:578
Hours:3,6,4,6,5, Type:0, Priority:43, totalHours:24, ID:579
Hours:-1,3,8,-1,2, Type:0, Priority:73, totalHours:13, ID:580
Hours:2,4,-1,5,-1, Type:0, Priority:54, totalHours:11, ID:581
Hours:-1,3,9,9,8, Type:0, Priority:81, totalHours:29, ID:582
Hours:-1,6,-1,8,-1, Type:0, Priority:79, totalHours:14, ID:583
Hours:5,9,-1,6,9, Type:0, Priority:7, totalHours:29, ID:584
Hours:4,9,8,-1,-1, Type:0, Priority:3, totalHours:21, ID:585
Hours:7,3,1,-1,1, Type:0, Priority:15, totalHours:12, ID:586
Hours:8,1,3,1,9, Type:0, Priority:21, totalHours:22, ID:587
Hours:8,-1,-1,9,6, Type:0, Priority:73, totalHours:23, ID:588
Hours:5,1,6,-1,4, Type:0, Priority:89, totalHours:16, ID:589
Hours:-1,-1,9,1,-1, Type:0, Priority:39, totalHours:10, ID:590
Hours:5,-1,-1,-1,3, Type:0, Priority:87, totalHours:8, ID:591
Hours:-1,3,3,7,3, Type:0, Priority:60, totalHours:16, ID:592
Hours:3,8,8,7,-1, Type:0, Priority:88, totalHours:26, ID:593
Hours:-1,-1,1,4,8, Type:0, Priority:12, totalHours:13, ID:594
Hours:1,-1,1,7,5, Type:0, Priority:33, totalHours:14, ID:595
Hours:-1,8,-1,6,-1, Type:0, Priority:92, totalHours:14, ID:596
Hours:7,-1,9,2,-1, Type:0, Priority:11, totalHours:18, ID:597
Hours:-1,-1,6,-1,-1, Type:0, Priority:66, totalHours:6, ID:598
Hours:3,-1,-1,-1,1, Type:0, Priority:48, totalHours:4, ID:599
Hours:8,-1,4,4,1, Type:0, Priority:65, totalHours:17, ID:600
Hours:-1,-1,-1,1,-1, Type:0, Priority:64, totalHours:1, ID:601
Hours:7,-1,-1,-1,-1, Type:0, Priority:95, totalHours:7, ID:602
Hours:4,2,-1,3,-1, Type:0, Priority:27, totalHours:9, ID:603
Hours:3,-1,7,-1,2, Type:0, Priority:41, totalHours:12, ID:604
Hours:2,9,9,-1,-1, Type:0, Priority:97, totalHours:20, ID:605
Hours:-1,7,7,-1,6, Type:0, Priority:92, totalHours:20, ID:606
Hours:8,9,-1,9,7, Type:0, Priority:88, totalHours:33, ID:607
Hours:6,-1,-1,1,7, Type:0, Priority:48, totalHours:14, ID:608
Hours:-1,-1,1,-1,-1, Type:0, Priority:90, totalHours:1, ID:609
Hours:5,6,6,4,-1, Type:0, Priority:54, totalHours:21, ID:610
Hours:9,9,2,4,8, Type:0, Priority:92, totalHours:32, ID:611
Hours:5,9,-1,8,8, Type:0, Priority:9, totalHours:30, ID:612
Hours:4,-1,-1,9,8, Type:0, Priority:60, totalHours:21, ID:613
Hours:2,1,7,4,-1, Type:0, Priority:36, totalHours:14, ID:614
Hours:3,4,-1,-1,-1, Type:0, Priority:43, totalHours:7, ID:615
Hours:4,7,4,8,7, Type:0, Priority:62, totalHours:30, ID:616
Hours:-1,8,3,6,-1, Type:0, Priority:52, totalHours:17, ID:617
Hours:8,8,-1,-1,1, Type:0, Priority:73, totalHours:17, ID:618
Hours:3,-1,3,9,-1, Type:0, Priority:73, totalHours:15, ID:619
Hours:4,7,-1,5,-1, Type:0, Priority:88, totalHours:16, ID:620
Hours:9,8,9,6,-1, Type:0, Priority:99, totalHours:32, ID:621
Hours:4,6,8,6,7, Type:0, Priority:26, totalHours:31, ID:622
Hours:-1,3,9,-1,-1, Type:0, Priority:46, totalHours:12, ID:623
Hours:1,3,2,-1,4, Type:0, Priority:22, totalHours:10, ID:624
Hours:3,-1,2,2,1, Type:0, Priority:88, totalHours:8, ID:625
Hours:8,4,7,-1,5, Type:0, Priority:60, totalHours:24, ID:626
Hours:6,4,5,5,7, Type:0, Priority:63, totalHours:27, ID:627
Hours:-1,4,-1,-1,2, Type:0, Priority:70, totalHours:6, ID:628
Hours:7,1,6,-1,-1, Type:0, Priority:54, totalHours:14, ID:629
Hours:-1,9,4,-1,-1, Type:0, Priority:26, totalHours:13, ID:630
Hours:3,7,-1,1,-1, Type:0, Priority:31, totalHours:11, ID:631
Hours:3,-1,9,-1,-1, Type:0, Priority:25, totalHours:12, ID:632
Hours:-1,7,-1,-1,1, Type:0, Priority:21, totalHours:8, ID:633
Hours:6,1,7,-1,1, Type:0, Priority:29, totalHours:15, ID:634
Hours:1,3,-1,6,-1, Type:0, Priority:75, totalHours:10, ID:635
Hours:5,4,4,-1,-1, Type:0, Priority:14, totalHours:13, ID:636
Hours:2,9,-1,-1,-1, Type:0, Priority:28, totalHours:11, ID:637
Hours:-1,-1,-1,1,-1, Type:0, Priority:9, totalHours:1, ID:638
Hours:1,1,-1,1,3, Type:0, Priority:48, totalHours:6, ID:639
Hours:2,-1,-1,6,6, Type:0, Priority:32, totalHours:14, ID:640
Hours:1,8,-1,1,7, Type:0, Priority:94, totalHours:17, ID:641
Hours:7,4,-1,-1,1, Type:0, Priority:0, totalHours:12, ID:642
Hours:2,-1,3,6,-1, Type:0, Priority:25, totalHours:11, ID:643
Hours:1,8,1,3,7, Type:0, Priority:56, totalHours:20, ID:644
Hours:5,4,-1,-1,6, Type:0, Priority:79, totalHours:15, ID:645
Hours:-1,1,-1,-1,-1, Type:0, Priority:3, totalHours:1, ID:646
Hours:9,-1,5,6,-1, Type:0, Priority:43, totalHours:20, ID:647
Hours:-1,-1,6,1,5, Type:0, Priority:69, totalHours:12, ID:648
Hours:5,6,2,2,-1, Type:0, Priority:62, totalHours:15, ID:649
Hours:-1,5,1,7,1, Type:0, Priority:89, totalHours:14, ID:650
Hours:-1,8,-1,4,2, Type:0, Priority:26, totalHours:14, ID:651
Hours:-1,5,-1,2,3, Type:0, Priority:40, totalHours:10, ID:652
Hours:9,2,4,9,2, Type:0, Priority:8, totalHours:26, ID:653
Hours:2,9,6,-1,4, Type:0, Priority:74, totalHours:21, ID:654
Hours:6,-1,-1,-1,-1, Type:0, Priority:26, totalHours:6, ID:655
Hours:9,-1,6,1,-1, Type:0, Priority:93, totalHours:16, ID:656
Hours:6,4,-1,-1,3, Type:0, Priority:26, totalHours:13, ID:657
Hours:6,-1,9,-1,3, Type:0, Priority:69, totalHours:18, ID:658
Hours:-1,2,7,8,5, Type:0, Priority:43, totalHours:22, ID:659
Hours:9,3,9,-1,-1, Type:0, Priority:26, totalHours:21, ID:660
Hours:-1,5,-1,6,9, Type:0, Priority:85, totalHours:20, ID:661
Hours:2,9,9,-1,-1, Type:0, Priority:80, totalHours:20, ID:662
Hours:6,-1,4,6,7, Type:0, Priority:27, totalHours:23, ID:663
Hours:2,4,-1,8,1, Type:0, Priority:11, totalHours:15, ID:664
Hours:6,-1,-1,-1,8, Type:0, Priority:15, totalHours:14, ID:665
Hours:8,8,6,3,8, Type:0, Priority:30, totalHours:33, ID:666
Hours:8,9,3,7,5, Type:0, Priority:58, totalHours:32, ID:667
Hours:4,6,5,8,7, Type:0, Priority:56, totalHours:30, ID:668
Hours:-1,-1,7,-1,-1, Type:0, Priority:63, totalHours:7, ID:669
Hours:-1,-1,8,-1,-1, Type:0, Priority:75, totalHours:8, ID:670
Hours:5,8,1,2,1, Type:0, Priority:83, totalHours:17, ID:671
Hours:9,-1,-1,-1,3, Type:0, Priority:0, totalHours:12, ID:672
Hours:9,-1,-1,3,-1, Type:0, Priority:14, totalHours:12, ID:673
Hours:-1,7,5,2,8, Type:0, Priority:85, totalHours:22, ID:674
Hours:-1,-1,6,-1,6, Type:0, Priority:83, totalHours:12, ID:675
Hours:9,-1,-1,-1,9, Type:0, Priority:16, totalHours:18, ID:676
Hours:-1,2,9,-1,5, Type:0, Priority:68, totalHours:16, ID:677
Hours:5,-1,1,9,5, Type:0, Priority:41, totalHours:20, ID:678
Hours:-1,8,7,6,-1, Type:0, Priority:64, totalHours:21, ID:679
Hours:-1,-1,4,1,7, Type:0, Priority:26, totalHours:12, ID:680
Hours:2,5,5,-1,1, Type:0, Priority:37, totalHours:13, ID:681
Hours:4,3,-1,-1,6, Type:0, Priority:68, totalHours:13, ID:682
Hours:3,-1,6,1,5, Type:0, Priority:72, totalHours:15, ID:683
Hours:5,2,-1,-1,5, Type:0, Priority:76, totalHours:12, ID:684
Hours:-1,-1,-1,-1,8, Type:0, Priority:60, totalHours:8, ID:685
Hours:-1,-1,-1,8,3, Type:0, Priority:83, totalHours:11, ID:686
Hours:6,-1,-1,3,9, Type:0, Priority:5, totalHours:18, ID:687
Hours:-1,-1,2,8,1, Type:0, Priority:43, totalHours:11, ID:688
Hours:-1,6,-1,9,5, Type:0, Priority:42, totalHours:20, ID:689
Hours:-1,9,4,7,3, Type:0, Priority:10, totalHours:23, ID:690
Hours:9,-1,8,-1,8, Type:0, Priority:83, totalHours:25, ID:691
Hours:7,-1,-1,9,6, Type:0, Priority:20, totalHours:22, ID:692
Hours:9,9,-1,9,-1, Type:0, Priority:60, totalHours:27, ID:693
Hours:5,-1,-1,7,8, Type:0, Priority:85, totalHours:20, ID:694
Hours:5,-1,-1,-1,-1, Type:0, Priority:60, totalHours:5, ID:695
Hours:1,-1,-1,7,4, Type:0, Priority:34, totalHours:12, ID:696
Hours:5,-1,9,-1,2, Type:0, Priority:40, totalHours:16, ID:697
Hours:2,-1,7,-1,3, Type:0, Priority:89, totalHours:12, ID:698
Hours:-1,4,-1,5,5, Type:0, Priority:3, totalHours:14, ID:699
Hours:8,-1,9,-1,9, Type:0, Priority:85, totalHours:26, ID:700
Hours:-1,-1,9,3,-1, Type:0, Priority:71, totalHours:12, ID:701
Hours:3,9,5,-1,5, Type:0, Priority:58, totalHours:22, ID:702
Hours:1,2,-1,-1,6, Type:0, Priority:57, totalHours:9, ID:703
Hours:-1,5,6,-1,3, Type:0, Priority:13, totalHours:14, ID:704
Hours:9,5,-1,-1,-1, Type:0, Priority:96, totalHours:14, ID:705
Hours:-1,-1,6,6,9, Type:0, Priority:78, totalHours:21, ID:706
Hours:1,-1,6,5,9, Type:0, Priority:41, totalHours:21, ID:707
Hours:-1,-1,-1,1,-1, Type:0, Priority:9, totalHours:1, ID:708
Hours:9,5,6,8,7, Type:0, Priority:77, totalHours:35, ID:709
Hours:-1,6,4,-1,7, Type:0, Priority:69, totalHours:17, ID:710
Hours:-1,-1,3,4,8, Type:0, Priority:9, totalHours:15, ID:711
Hours:3,-1,5,-1,1, Type:0, Priority:19, totalHours:9, ID:712
Hours:-1,1,8,5,-1, Type:0, Priority:55, totalHours:14, ID:713
Hours:-1,4,1,7,9, Type:0, Priority:46, totalHours:21, ID:714
Hours:7,-1,9,1,3, Type:0, Priority:4, totalHours:20, ID:715
Hours:8,9,7,2,2, Type:0, Priority:14, totalHours:28, ID:716
Hours:8,8,9,6,8, Type:0, Priority:78, totalHours:39, ID:717
Hours:3,9,8,-1,8, Type:0, Priority:80, totalHours:28, ID:718
Hours:8,5,-1,-1,-1, Type:0, Priority:72, totalHours:13, ID:719
Hours:3,2,1,1,1, Type:0, Priority:80, totalHours:8, ID:720
Hours:5,-1,3,2,8, Type:0, Priority:25, totalHours:18, ID:721
Hours:9,4,-1,6,6, Type:0, Priority:74, totalHours:25, ID:722
Hours:-1,-1,3,3,8, Type:0, Priority:33, totalHours:14, ID:723
Hours:4,-1,2,3,3, Type:0, Priority:3, totalHours:12, ID:724
Hours:3,2,4,2,-1, Type:0, Priority:17, totalHours:11, ID:725
Hours:5,5,3,-1,9, Type:0, Priority:38, totalHours:22, ID:726
Hours:7,1,1,9,4, Type:0, Priority:0, totalHours:22, ID:727
Hours:-1,-1,7,6,5, Type:0, Priority:77, totalHours:18, ID:728
Hours:1,-1,-1,-1,9, Type:0, Priority:4, totalHours:10, ID:729
Hours:-1,-1,8,-1,8, Type:0, Priority:51, totalHours:16, ID:730
Hours:8,4,1,4,7, Type:0, Priority:48, totalHours:24, ID:731
Hours:2,-1,2,4,2, Type:0, Priority:4, totalHours:10, ID:732
Hours:4,7,-1,-1,2, Type:0, Priority:83, totalHours:13, ID:733
Hours:-1,-1,-1,-1,4, Type:0, Priority:7, totalHours:4, ID:734
Hours:-1,5,3,7,5, Type:0, Priority:79, totalHours:20, ID:735
Hours:8,-1,-1,1,8, Type:0, Priority:62, totalHours:17, ID:736
Hours:8,8,1,9,-1, Type:0, Priority:83, totalHours:26, ID:737
Hours:6,7,3,7,1, Type:0, Priority:53, totalHours:24, ID:738
Hours:-1,7,2,6,6, Type:0, Priority:72, totalHours:21, ID:739
Hours:2,7,1,4,-1, Type:0, Priority:35, totalHours:14, ID:740
Hours:8,9,6,-1,-1, Type:0, Priority:19, totalHours:23, ID:741
Hours:3,-1,-1,1,-1, Type:0, Priority:90, totalHours:4, ID:742
Hours:-1,-1,6,3,9, Type:0, Priority:95, totalHours:18, ID:743
Hours:1,8,2,1,2, Type:0, Priority:9, totalHours:14, ID:744
Hours:3,4,2,2,-1, Type:0, Priority:29, totalHours:11, ID:745
Hours:5,7,-1,7,3, Type:0, Priority:35, totalHours:22, ID:746
Hours:1,8,7,-1,5, Type:0, Priority:16, totalHours:21, ID:747
Hours:1,-1,2,5,9, Type:0, Priority:77, totalHours:17, ID:748
Hours:6,9,-1,3,4, Type:0, Priority:3, totalHours:22, ID:749
Hours:-1,1,2,-1,-1, Type:0, Priority:29, totalHours:3, ID:750
Hours:-1,7,-1,3,-1, Type:0, Priority:32, totalHours:10, ID:751
Hours:-1,6,-1,5,-1, Type:0, Priority:26, totalHours:11, ID:752
Hours:3,-1,8,-1,4, Type:0, Priority:90, totalHours:15, ID:753
Hours:-1,2,7,-1,-1, Type:0, Priority:4, totalHours:9, ID:754
Hours:-1,-1,9,7,6, Type:0, Priority:96, totalHours:22, ID:755
Hours:-1,6,9,-1,-1, Type:0, Priority:37, totalHours:15, ID:756
Hours:4,9,3,3,-1, Type:0, Priority:76, totalHours:19, ID:757
Hours:-1,-1,8,-1,1, Type:0, Priority:88, totalHours:9, ID:758
Hours:8,6,8,4,-1, Type:0, Priority:65, totalHours:26, ID:759
Hours:7,2,9,4,3, Type:0, Priority:67, totalHours:25, ID:760
Hours:8,2,3,3,1, Type:0, Priority:67, totalHours:17, ID:761
Hours:-1,6,-1,1,8, Type:0, Priority:23, totalHours:15, ID:762
Hours:-1,3,-1,9,7, Type:0, Priority:51, totalHours:19, ID:763
Hours:-1,4,6,-1,-1, Type:0, Priority:37, totalHours:10, ID:764
Hours:8,9,-1,-1,2, Type:0, Priority:32, totalHours:19, ID:765
Hours:-1,-1,5,-1,-1, Type:0, Priority:15, totalHours:5, ID:766
Hours:8,4,9,-1,1, Type:0, Priority:80, totalHours:22, ID:767
Hours:-1,1,7,-1,-1, Type:0, Priority:82, totalHours:8, ID:768
Hours:-1,3,1,5,-1, Type:0, Priority:77, totalHours:9, ID:769
Hours:-1,3,9,7,9, Type:0, Priority:57, totalHours:28, ID:770
Hours:8,9,5,-1,2, Type:0, Priority:24, totalHours:24, ID:771
Hours:-1,5,5,7,5, Type:0, Priority:13, totalHours:22, ID:772
Hours:3,-1,-1,-1,8, Type:0, Priority:68, totalHours:11, ID:773
Hours:7,8,-1,5,4, Type:0, Priority:64, totalHours:24, ID:774
Hours:5,4,-1,-1,8, Type:0, Priority:93, totalHours:17, ID:775
Hours:1,-1,-1,3,-1, Type:0, Priority:46, totalHours:4, ID:776
Hours:6,3,-1,-1,5, Type:0, Priority:75, totalHours:14, ID:777
Hours:-1,-1,-1,9,6, Type:0, Priority:72, totalHours:15, ID:778
Hours:9,1,-1,5,1, Type:0, Priority:27, totalHours:16, ID:779
Hours:-1,4,-1,7,2, Type:0, Priority:45, totalHours:13, ID:780
Hours:1,-1,8,8,-1, Type:0, Priority:7, totalHours:17, ID:781
Hours:6,4,3,7,6, Type:0, Priority:44, totalHours:26, ID:782
Hours:-1,-1,-1,-1,-1, Type:0, Priority:4, totalHours:0, ID:783
Hours:-1,-1,5,-1,3, Type:0, Priority:67, totalHours:8, ID:784
Hours:2,4,-1,8,-1, Type:0, Priority:30, totalHours:14, ID:785
Hours:-1,-1,-1,-1,-1, Type:0, Priority:21, totalHours:0, ID:786
Hours:9,5,-1,-1,-1, Type:0, Priority:39, totalHours:14, ID:787
Hours:6,8,8,6,2, Type:0, Priority:9, totalHours:30, ID:788
Hours:1,-1,4,3,6, Type:0, Priority:67, totalHours:14, ID:789
Hours:3,8,-1,-1,-1, Type:0, Priority:53, totalHours:11, ID:790
Hours:6,-1,-1,6,8, Type:0, Priority:56, totalHours:20, ID:791
Hours:-1,4,1,5,-1, Type:0, Priority:21, totalHours:10, ID:792
Hours:5,1,-1,2,5, Type:0, Priority:99, totalHours:13, ID:793
Hours:1,2,7,5,5, Type:0, Priority:35, totalHours:20, ID:794
Hours:9,-1,-1,-1,-1, Type:0, Priority:8, totalHours:9, ID:795
Hours:9,7,-1,-1,-1, Type:0, Priority:22, totalHours:16, ID:796
Hours:-1,2,4,-1,-1, Type:0, Priority:49, totalHours:6, ID:797
Hours:8,-1,3,-1,-1, Type:0, Priority:5, totalHours:11, ID:798
Hours:-1,-1,6,5,9, Type:0, Priority:92, totalHours:20, ID:799
Hours:-1,4,-1,-1,3, Type:0, Priority:27, totalHours:7, ID:800
Hours:-1,8,7,-1,5, Type:0, Priority:33, totalHours:20, ID:801
Hours:5,1,4,2,-1, Type:0, Priority:86, totalHours:12, ID:802
Hours:-1,-1,-1,4,-1, Type:0, Priority:63, totalHours:4, ID:803
Hours:9,9,-1,5,4, Type:0, Priority:84, totalHours:27, ID:804
Hours:-1,4,-1,-1,7, Type:0, Priority:28, totalHours:11, ID:805
Hours:1,2,-1,6,7, Type:0, Priority:78, totalHours:16, ID:806
Hours:4,2,2,2,-1, Type:0, Priority:13, totalHours:10, ID:807
Hours:-1,-1,5,5,-1, Type:0, Priority:40, totalHours:10, ID:808
Hours:3,1,5,1,6, Type:0, Priority:62, totalHours:16, ID:809
Hours:6,7,6,4,6, Type:0, Priority:52, totalHours:29, ID:810
Hours:4,9,8,2,2, Type:0, Priority:79, totalHours:25, ID:811
Hours:-1,5,-1,5,6, Type:0, Priority:88, totalHours:16, ID:812
Hours:-1,-1,7,5,7, Type:0, Priority:58, totalHours:19, ID:813
Hours:5,2,1,-1,2, Type:0, Priority:62, totalHours:10, ID:814
Hours:3,7,2,4,6, Type:0, Priority:66, totalHours:22, ID:815
Hours:5,5,-1,-1,-1, Type:0, Priority:75, totalHours:10, ID:816
Hours:-1,-1,1,-1,9, Type:0, Priority:87, totalHours:10, ID:817
Hours:-1,9,-1,9,-1, Type:0, Priority:31, totalHours:18, ID:818
Hours:9,7,2,-1,5, Type:0, Priority:48, totalHours:23, ID:819
Hours:6,9,-1,-1,6, Type:0, Priority:43, totalHours:21, ID:820
Hours:-1,-1,-1,-1,1, Type:0, Priority:73, totalHours:1, ID:821
Hours:6,-1,7,-1,3, Type:0, Priority:28, totalHours:16, ID:822
Hours:-1,5,7,3,-1, Type:0, Priority:57, totalHours:15, ID:823
Hours:8,4,1,8,2, Type:0, Priority:81, totalHours:23, ID:824
Hours:5,-1,8,4,9, Type:0, Priority:12, totalHours:26, ID:825
Hours:2,8,2,-1,2, Type:0, Priority:25, totalHours:14, ID:826
Hours:7,-1,-1,3,-1, Type:0, Priority:93, totalHours:10, ID:827
Hours:-1,4,2,4,6, Type:0, Priority:64, totalHours:16, ID:828
Hours:3,6,7,5,-1, Type:0, Priority:65, totalHours:21, ID:829
Hours:7,9,8,2,3, Type:0, Priority:80, totalHours:29, ID:830
Hours:9,6,1,1,-1, Type:0, Priority:6, totalHours:17, ID:831
Hours:-1,2,8,-1,2, Type:0, Priority:78, totalHours:12, ID:832
Hours:-1,6,6,-1,9, Type:0, Priority:93, totalHours:21, ID:833
Hours:9,-1,8,1,7, Type:0, Priority:66, totalHours:25, ID:834
Hours:-1,9,-1,-1,9, Type:0, Priority:11, totalHours:18, ID:835
Hours:-1,2,5,4,-1, Type:0, Priority:93, totalHours:11, ID:836
Hours:-1,9,5,8,-1, Type:0, Priority:44, totalHours:22, ID:837
Hours:-1,9,4,2,6, Type:0, Priority:5, totalHours:21, ID:838
Hours:3,-1,5,3,8, Type:0, Priority:9, totalHours:19, ID:839
Hours:8,-1,-1,7,1, Type:0, Priority:36, totalHours:16, ID:840
Hours:2,9,-1,3,-1, Type:0, Priority:36, totalHours:14, ID:841
Hours:5,5,3,1,9, Type:0, Priority:94, totalHours:23, ID:842
Hours:3,-1,6,1,8, Type:0, Priority:4, totalHours:18, ID:843
Hours:8,3,-1,-1,-1, Type:0, Priority:43, totalHours:11, ID:844
Hours:1,-1,1,5,9, Type:0, Priority:73, totalHours:16, ID:845
Hours:8,-1,2,2,5, Type:0, Priority:47, totalHours:17, ID:846
Hours:-1,7,-1,6,3, Type:0, Priority:29, totalHours:16, ID:847
Hours:8,6,-1,7,2, Type:0, Priority:15, totalHours:23, ID:848
Hours:6,-1,4,2,-1, Type:0, Priority:84, totalHours:12, ID:849
Hours:7,-1,-1,-1,-1, Type:0, Priority:33, totalHours:7, ID:850
Hours:-1,2,7,-1,-1, Type:0, Priority:11, totalHours:9, ID:851
Hours:-1,9,-1,1,1, Type:0, Priority:65, totalHours:11, ID:852
Hours:-1,7,9,-1,1, Type:0, Priority:90, totalHours:17, ID:853
Hours:7,8,1,1,8, Type:0, Priority:37, totalHours:25, ID:854
Hours:1,5,7,7,9, Type:0, Priority:14, totalHours:29, ID:855
Hours:8,-1,7,8,6, Type:0, Priority:69, totalHours:29, ID:856
Hours:4,-1,2,-1,2, Type:0, Priority:14, totalHours:8, ID:857
Hours:3,-1,5,-1,-1, Type:0, Priority:72, totalHours:8, ID:858
Hours:7,-1,5,3,6, Type:0, Priority:55, totalHours:21, ID:859
Hours:2,6,-1,5,4, Type:0, Priority:44, totalHours:17, ID:860
Hours:-1,9,8,1,4, Type:0, Priority:66, totalHours:22, ID:861
Hours:2,4,-1,-1,-1, Type:0, Priority:58, totalHours:6, ID:862
Hours:8,-1,7,-1,8, Type:0, Priority:13, totalHours:23, ID:863
Hours:6,-1,5,1,-1, Type:0, Priority:79, totalHours:12, ID:864
Hours:-1,8,-1,-1,-1, Type:0, Priority:63, totalHours:8, ID:865
Hours:-1,-1,4,4,9, Type:0, Priority:57, totalHours:17, ID:866
Hours:-1,9,2,7,3, Type:0, Priority:73, totalHours:21, ID:867
Hours:-1,-1,-1,-1,-1, Type:0, Priority:17, totalHours:0, ID:868
Hours:2,4,-1,-1,1, Type:0, Priority:95, totalHours:7, ID:869
Hours:4,1,6,-1,4, Type:0, Priority:60, totalHours:15, ID:870
Hours:-1,-1,-1,6,6, Type:0, Priority:4, totalHours:12, ID:871
Hours:5,6,-1,1,-1, Type:0, Priority:52, totalHours:12, ID:872
Hours:3,-1,2,-1,-1, Type:0, Priority:30, totalHours:5, ID:873
Hours:1,-1,-1,1,8, Type:0, Priority:86, totalHours:10, ID:874
Hours:2,-1,-1,8,1, Type:0, Priority:0, totalHours:11, ID:875
Hours:-1,-1,7,-1,9, Type:0, Priority:11, totalHours:16, ID:876
Hours:8,6,-1,-1,-1, Type:0, Priority:27, totalHours:14, ID:877
Hours:6,5,9,3,7, Type:0, Priority:7, totalHours:30, ID:878
Hours:3,-1,3,-1,-1, Type:0, Priority:98, totalHours:6, ID:879
Hours:2,-1,1,-1,-1, Type:0, Priority:79, totalHours:3, ID:880
Hours:5,-1,1,5,5, Type:0, Priority:2, totalHours:16, ID:881
Hours:5,-1,-1,8,-1, Type:0, Priority:9, totalHours:13, ID:882
Hours:-1,9,7,4,8, Type:0, Priority:83, totalHours:28, ID:883
Hours:6,-1,-1,4,1, Type:0, Priority:26, totalHours:11, ID:884
Hours:3,-1,-1,5,2, Type:0, Priority:34, totalHours:10, ID:885
Hours:6,4,-1,-1,-1, Type:0, Priority:45, totalHours:10, ID:886
Hours:8,6,-1,-1,-1, Type:0, Priority:41, totalHours:14, ID:887
Hours:7,7,-1,4,-1, Type:0, Priority:89, totalHours:18, ID:888
Hours:-1,-1,6,5,2, Type:0, Priority:19, totalHours:13, ID:889
Hours:-1,7,-1,-1,8, Type:0, Priority:51, totalHours:15, ID:890
Hours:4,-1,-1,-1,4, Type:0, Priority:56, totalHours:8, ID:891
Hours:9,-1,7,4,1, Type:0, Priority:51, totalHours:21, ID:892
Hours:4,8,9,2,8, Type:0, Priority:38, totalHours:31, ID:893
Hours:-1,-1,-1,-1,4, Type:0, Priority:68, totalHours:4, ID:894
Hours:5,-1,2,7,-1, Type:0, Priority:14, totalHours:14, ID:895
Hours:-1,9,-1,3,5, Type:0, Priority:51, totalHours:17, ID:896
Hours:-1,6,-1,-1,5, Type:0, Priority:76, totalHours:11, ID:897
Hours:3,8,4,7,-1, Type:0, Priority:74, totalHours:22, ID:898
Hours:4,8,7,1,-1, Type:0, Priority:16, totalHours:20, ID:899
Hours:-1,-1,7,9,-1, Type:0, Priority:44, totalHours:16, ID:900
Hours:8,-1,-1,6,6, Type:0, Priority:20, totalHours:20, ID:901
Hours:-1,4,9,-1,8, Type:0, Priority:12, totalHours:21, ID:902
Hours:-1,-1,-1,-1,6, Type:0, Priority:6, totalHours:6, ID:903
Hours:3,5,9,2,-1, Type:0, Priority:52, totalHours:19, ID:904
Hours:-1,9,4,1,-1, Type:0, Priority:25, totalHours:14, ID:905
Hours:3,6,-1,9,-1, Type:0, Priority:40, totalHours:18, ID:906
Hours:6,6,2,-1,9, Type:0, Priority:39, totalHours:23, ID:907
Hours:-1,8,8,1,9, Type:0, Priority:98, totalHours:26, ID:908
Hours:1,8,-1,1,-1, Type:0, Priority:8, totalHours:10, ID:909
Hours:9,-1,9,-1,-1, Type:0, Priority:38, totalHours:18, ID:910
Hours:9,-1,9,-1,9, Type:0, Priority:9, totalHours:27, ID:911
Hours:-1,6,-1,-1,-1, Type:0, Priority:33, totalHours:6, ID:912
Hours:9,5,5,8,-1, Type:0, Priority:1, totalHours:27, ID:913
Hours:-1,5,-1,3,8, Type:0, Priority:45, totalHours:16, ID:914
Hours:-1,-1,3,2,8, Type:0, Priority:99, totalHours:13, ID:915
Hours:9,5,6,6,-1, Type:0, Priority:31, totalHours:26, ID:916
Hours:1,-1,-1,6,7, Type:0, Priority:75, totalHours:14, ID:917
Hours:5,-1,9,8,-1, Type:0, Priority:58, totalHours:22, ID:918
Hours:6,-1,4,9,4, Type:0, Priority:39, totalHours:23, ID:919
Hours:3,6,2,-1,5, Type:0, Priority:46, totalHours:16, ID:920
Hours:1,4,2,1,1, Type:0, Priority:7, totalHours:9, ID:921
Hours:7,-1,1,4,3, Type:0, Priority:84, totalHours:15, ID:922
Hours:-1,-1,-1,1,5, Type:0, Priority:81, totalHours:6, ID:923
Hours:-1,6,-1,-1,-1, Type:0, Priority:21, totalHours:6, ID:924
Hours:9,-1,1,-1,5, Type:0, Priority:94, totalHours:15, ID:925
Hours:3,1,2,-1,-1, Type:0, Priority:17, totalHours:6, ID:926
Hours:9,9,8,7,4, Type:0, Priority:3, totalHours:37, ID:927
Hours:8,9,1,9,2, Type:0, Priority:97, totalHours:29, ID:928
Hours:4,-1,2,8,6, Type:0, Priority:8, totalHours:20, ID:929
Hours:7,-1,5,-1,6, Type:0, Priority:71, totalHours:18, ID:930
Hours:4,7,5,-1,-1, Type:0, Priority:9, totalHours:16, ID:931
Hours:-1,9,2,-1,-1, Type:0, Priority:18, totalHours:11, ID:932
Hours:8,-1,8,-1,-1, Type:0, Priority:61, totalHours:16, ID:933
Hours:9,6,5,-1,6, Type:0, Priority:43, totalHours:26, ID:934
Hours:9,9,-1,-1,7, Type:0, Priority:45, totalHours:25, ID:935
Hours:-1,-1,2,9,1, Type:0, Priority:18, totalHours:12, ID:936
Hours:-1,3,5,-1,8, Type:0, Priority:45, totalHours:16, ID:937
Hours:5,2,-1,5,-1, Type:0, Priority:58, totalHours:12, ID:938
Hours:-1,7,-1,5,7, Type:0, Priority:11, totalHours:19, ID:939
Hours:1,2,7,-1,2, Type:0, Priority:88, totalHours:12, ID:940
Hours:-1,9,3,-1,-1, Type:0, Priority:17, totalHours:12, ID:941
Hours:1,8,-1,6,-1, Type:0, Priority:51, totalHours:15, ID:942
Hours:3,-1,5,-1,-1, Type:0, Priority:55, totalHours:8, ID:943
Hours:-1,6,-1,5,8, Type:0, Priority:90, totalHours:19, ID:944
Hours:1,3,1,-1,8, Type:0, Priority:83, totalHours:13, ID:945
Hours:-1,-1,6,-1,2, Type:0, Priority:55, totalHours:8, ID:946
Hours:4,1,9,7,-1, Type:0, Priority:36, totalHours:21, ID:947
Hours:-1,-1,-1,5,2, Type:0, Priority:75, totalHours:7, ID:948
Hours:3,1,7,6,-1, Type:0, Priority:59, totalHours:17, ID:949
Hours:2,1,1,5,-1, Type:0, Priority:14, totalHours:9, ID:950
Hours:-1,-1,-1,-1,-1, Type:0, Priority:80, totalHours:0, ID:951
Hours:5,-1,2,-1,-1, Type:0, Priority:67, totalHours:7, ID:952
Hours:-1,9,6,-1,-1, Type:0, Priority:49, totalHours:15, ID:953
Hours:9,-1,7,9,4, Type:0, Priority:96, totalHours:29, ID:954
Hours:6,-1,6,-1,-1, Type:0, Priority:81, totalHours:12, ID:955
Hours:-1,-1,6,5,-1, Type:0, Priority:26, totalHours:11, ID:956
Hours:1,-1,-1,8,7, Type:0, Priority:27, totalHours:16, ID:957
Hours:-1,8,-1,5,-1, Type:0, Priority:43, totalHours:13, ID:958
Hours:4,9,3,7,-1, Type:0, Priority:14, totalHours:23, ID:959
Hours:7,2,5,-1,3, Type:0, Priority:47, totalHours:17, ID:960
Hours:8,2,-1,6,2, Type:0, Priority:1, totalHours:18, ID:961
Hours:4,2,8,8,6, Type:0, Priority:38, totalHours:28, ID:962
Hours:-1,2,3,3,-1, Type:0, Priority:83, totalHours:8, ID:963
Hours:7,-1,6,-1,2, Type:0, Priority:78, totalHours:15, ID:964
Hours:-1,9,-1,2,-1, Type:0, Priority:56, totalHours:11, ID:965
Hours:3,6,-1,-1,-1, Type:0, Priority:16, totalHours:9, ID:966
Hours:-1,-1,4,5,2, Type:0, Priority:13, totalHours:11, ID:967
Hours:7,7,1,9,6, Type:0, Priority:16, totalHours:30, ID:968
Hours:1,-1,1,5,1, Type:0, Priority:21, totalHours:8, ID:969
Hours:2,4,-1,8,8, Type:0, Priority:28, totalHours:22, ID:970
Hours:5,-1,-1,4,1, Type:0, Priority:97, totalHours:10, ID:971
Hours:3,5,6,7,-1, Type:0, Priority:5, totalHours:21, ID:972
Hours:6,7,-1,3,-1, Type:0, Priority:80, totalHours:16, ID:973
Hours:-1,6,-1,1,5, Type:0, Priority:41, totalHours:12, ID:974
Hours:-1,1,3,5,-1, Type:0, Priority:71, totalHours:9, ID:975
Hours:6,-1,-1,6,8, Type:0, Priority:17, totalHours:20, ID:976
Hours:-1,4,-1,-1,4, Type:0, Priority:9, totalHours:8, ID:977
Hours:2,5,-1,5,1, Type:0, Priority:23, totalHours:13, ID:978
Hours:-1,6,3,9,1, Type:0, Priority:81, totalHours:19, ID:979
Hours:8,3,-1,-1,-1, Type:0, Priority:32, totalHours:11, ID:980
Hours:9,5,-1,9,-1, Type:0, Priority:15, totalHours:23, ID:981
Hours:7,9,8,-1,-1, Type:0, Priority:64, totalHours:24, ID:982
Hours:7,4,7,8,-1, Type:0, Priority:61, totalHours:26, ID:983
Hours:6,3,3,3,4, Type:0, Priority:40, totalHours:19, ID:984
Hours:6,-1,6,-1,1, Type:0, Priority:18, totalHours:13, ID:985
Hours:3,-1,6,1,-1, Type:0, Priority:23, totalHours:10, ID:986
Hours:-1,-1,-1,-1,6, Type:0, Priority:53, totalHours:6, ID:987
Hours:1,-1,4,6,-1, Type:0, Priority:20, totalHours:11, ID:988
Hours:-1,5,-1,8,4, Type:0, Priority:66, totalHours:17, ID:989
Hours:8,-1,4,2,8, Type:0, Priority:47, totalHours:22, ID:990
Hours:-1,-1,-1,2,5, Type:0, Priority:80, totalHours:7, ID:991
Hours:1,-1,6,2,2, Type:0, Priority:46, totalHours:11, ID:992
Hours:-1,4,-1,6,3, Type:0, Priority:13, totalHours:13, ID:993
Hours:5,5,7,2,4, Type:0, Priority:25, totalHours:23, ID:994
Hours:7,7,8,3,7, Type:0, Priority:25, totalHours:32, ID:995
Hours:-1,1,8,9,-1, Type:0, Priority:31, totalHours:18, ID:996
Hours:2,-1,8,-1,1, Type:0, Priority:36, totalHours:11, ID:997
Hours:4,-1,6,3,-1, Type:0, Priority:26, totalHours:13, ID:998
Hours:2,-1,5,9,2, Type:0, Priority:50, totalHours:18, ID:999
End